…
As tabelas diárias podem ser salvas com a função `save_daily_tbl` do
pacote `wcswatin` (por favor consultar a documentação da função).

Segue a leitura dos centroides das estações utilizadas nas
interpolações:

``` r
sf::read_sf(centroides_path)
#> Simple feature collection with 258 features and 5 fields
#> Geometry type: POINT
#> Dimension:     XY
#> Bounding box:  xmin: -55.27486 ymin: -17.14102 xmax: -53.76752 ymax: -15.53671
#> Geodetic CRS:  WGS 84
#> # A tibble: 258 × 6
#>    OBJECTID Subbasin  Elev Lat_dec Lon_dec              geometry
#>       <dbl>    <dbl> <dbl>   <dbl>   <dbl>           <POINT [°]>
#>  1        1        1   556   -15.5   -54.9 (-54.94489 -15.53671)
#>  2        2        2   587   -15.6   -55.1 (-55.08196 -15.55587)
#>  3        3        3   622   -15.6   -54.7 (-54.73782 -15.55762)
#>  4        4        4   511   -15.6   -54.7  (-54.6657 -15.56561)
#>  5        5        5   472   -15.6   -54.9 (-54.92795 -15.60461)
#>  6        6        6   631   -15.6   -54.8 (-54.77498 -15.60364)
#>  7        7        7   424   -15.7   -54.7 (-54.74662 -15.65306)
#>  8        8        8   532   -15.6   -54.6 (-54.62564 -15.63742)
#>  9        9        9   530   -15.6   -54.8 (-54.83962 -15.59748)
#> 10       10       10   432   -15.7   -54.8  (-54.79766 -15.6824)
#> # … with 248 more rows
```
…
serie_pontos[[1]]
#> # A tibble: 31 × 3
#>       ID date           value
#>    <int> <chr>          <dbl>
#>  1     1 day_2017-03-01  0
#>  2     1 day_2017-03-02  0
#>  3     1 day_2017-03-03 30.6
#>  4     1 day_2017-03-04 23.7
#>  5     1 day_2017-03-05  0
#>  6     1 day_2017-03-06  2.10
#>  7     1 day_2017-03-07 27.0
#>  8     1 day_2017-03-08  0
#>  9     1 day_2017-03-09  3.00
#> 10     1 day_2017-03-10 28.3
#> # … with 21 more rows
```

A função `varMain_creator` cria uma tabela master para entrada no SWAT
para os dados da grade regular ou irregular interpolada

``` r
varMain_creator(targeted_points_path = centroides_path,
                var_name = "pcp",
                col_elev = "Elev")
#> # A tibble: 258 × 5
#>       ID NAME    LAT  LONG ELEVATION
#>    <dbl> <chr> <dbl> <dbl>     <dbl>
#>  1     1 pcp1  -15.5 -54.9       556
#>  2     2 pcp2  -15.6 -55.1       587
#>  3     3 pcp3  -15.6 -54.7       622
#>  4     4 pcp4  -15.6 -54.7       511
#>  5     5 pcp5  -15.6 -54.9       472
#>  6     6 pcp6  -15.6 -54.8       631
#>  7     7 pcp7  -15.7 -54.7       424
#>  8     8 pcp8  -15.6 -54.6       532
#>  9     9 pcp9  -15.6 -54.8       530
#> 10    10 pcp10 -15.7 -54.8       432
#> # … with 248 more rows
```
…
